…
::: {.cell hash='EDA_cache/pdf/unnamed-chunk-9_126632baca152d41cb607b118549c3d3'}

```{.r .cell-code}
d %>% 
  transmute(across(bill_length_mm:body_mass_g, 
                .fns = ~ {(.x - mean(.x, na.rm = TRUE)) / sd(.x, na.rm = TRUE)},
                .names = "{.col}_z"))
```

::: {.cell-output .cell-output-stdout}
```
# A tibble: 344 x 4
   bill_length_mm_z bill_depth_mm_z flipper_length_mm_z body_mass_g_z
              <dbl>           <dbl>               <dbl>         <dbl>
 1           -0.883           0.784              -1.42        -0.563 
 2           -0.810           0.126              -1.06        -0.501 
 3           -0.663           0.430              -0.421       -1.19  
 4           NA              NA                  NA           NA     
 5           -1.32            1.09               -0.563       -0.937 
 6           -0.847           1.75               -0.776       -0.688 
 7           -0.920           0.329              -1.42        -0.719 
 8           -0.865           1.24               -0.421        0.590 
 9           -1.80            0.480              -0.563       -0.906 
10           -0.352           1.54               -0.776        0.0602
# ... with 334 more rows
```
…
